EESchema Schematic File Version 4
LIBS:tiny5807-cache
EELAYER 26 0
EELAYER END
$Descr USLetter 11000 8500
encoding utf-8
Sheet 1 1
Title "tiny5807"
Date "2020-02-03"
Rev "v06"
Comp ""
Comment1 "gitlab.com/onii"
Comment2 ""
Comment3 ""
Comment4 ""
$EndDescr
$Comp
L KiCad-stuff:attiny402 U1
U 1 1 5E89B038
P 5050 3500
F 0 "U1" H 5050 4115 50  0000 C CNN
F 1 "attiny402" H 5050 4024 50  0000 C CNN
F 2 "Package_SO:SOIC-8_3.9x4.9mm_P1.27mm" H 5050 3300 16  0001 C CNN
F 3 "" H 5050 3700 50  0001 C CNN
	1    5050 3500
	1    0    0    -1  
$EndComp
$Comp
L KiCad-stuff:RDA5807M U3
U 1 1 5E89B0A2
P 6900 3350
F 0 "U3" H 6950 3847 60  0000 C CNN
F 1 "RDA5807M" H 6950 3741 60  0000 C CNN
F 2 "custom-footprints:RDA5807M_SMD" H 7050 3350 60  0001 C CNN
F 3 "" H 7050 3350 60  0000 C CNN
	1    6900 3350
	1    0    0    -1  
$EndComp
$Comp
L Device:C_Small C2
U 1 1 5E89B193
P 5250 2550
F 0 "C2" H 5342 2596 50  0000 L CNN
F 1 "100nF" H 5342 2505 50  0000 L CNN
F 2 "Capacitor_SMD:C_0805_2012Metric_Pad1.15x1.40mm_HandSolder" H 5250 2550 50  0001 C CNN
F 3 "~" H 5250 2550 50  0001 C CNN
	1    5250 2550
	1    0    0    -1  
$EndComp
$Comp
L Device:C_Small C4
U 1 1 5E89B31B
P 6900 3700
F 0 "C4" V 7000 3750 50  0000 L CNN
F 1 "100nF" V 7000 3450 50  0000 L CNN
F 2 "Capacitor_SMD:C_0805_2012Metric_Pad1.15x1.40mm_HandSolder" H 6900 3700 50  0001 C CNN
F 3 "~" H 6900 3700 50  0001 C CNN
	1    6900 3700
	0    -1   -1   0   
$EndComp
$Comp
L Device:C_Small C1
U 1 1 5E89B37D
P 4900 2550
F 0 "C1" H 4992 2596 50  0000 L CNN
F 1 "1uF" H 4992 2505 50  0000 L CNN
F 2 "Capacitor_SMD:C_0603_1608Metric_Pad1.05x0.95mm_HandSolder" H 4900 2550 50  0001 C CNN
F 3 "~" H 4900 2550 50  0001 C CNN
	1    4900 2550
	1    0    0    -1  
$EndComp
Wire Wire Line
	4900 2450 5250 2450
Wire Wire Line
	4900 2650 5250 2650
$Comp
L power:GND #PWR03
U 1 1 5E89B48F
P 4900 2650
F 0 "#PWR03" H 4900 2400 50  0001 C CNN
F 1 "GND" H 4905 2477 50  0000 C CNN
F 2 "" H 4900 2650 50  0001 C CNN
F 3 "" H 4900 2650 50  0001 C CNN
	1    4900 2650
	1    0    0    -1  
$EndComp
Connection ~ 4900 2650
$Comp
L power:VCC #PWR02
U 1 1 5E89B4FF
P 4900 2450
F 0 "#PWR02" H 4900 2300 50  0001 C CNN
F 1 "VCC" H 4917 2623 50  0000 C CNN
F 2 "" H 4900 2450 50  0001 C CNN
F 3 "" H 4900 2450 50  0001 C CNN
	1    4900 2450
	1    0    0    -1  
$EndComp
Connection ~ 4900 2450
$Comp
L power:VCC #PWR01
U 1 1 5E89B56F
P 4550 3150
F 0 "#PWR01" H 4550 3000 50  0001 C CNN
F 1 "VCC" V 4568 3277 50  0000 L CNN
F 2 "" H 4550 3150 50  0001 C CNN
F 3 "" H 4550 3150 50  0001 C CNN
	1    4550 3150
	0    -1   -1   0   
$EndComp
$Comp
L power:GND #PWR05
U 1 1 5E89B5DF
P 5550 3150
F 0 "#PWR05" H 5550 2900 50  0001 C CNN
F 1 "GND" V 5555 3022 50  0000 R CNN
F 2 "" H 5550 3150 50  0001 C CNN
F 3 "" H 5550 3150 50  0001 C CNN
	1    5550 3150
	0    -1   -1   0   
$EndComp
Text GLabel 4550 3450 0    50   Input ~ 0
SDA
Text GLabel 5550 3450 2    50   Input ~ 0
SCL
Text GLabel 6500 3100 0    50   Input ~ 0
SDA
Text GLabel 6500 3200 0    50   Input ~ 0
SCL
$Comp
L Connector:TestPoint TP1
U 1 1 5E89B878
P 5550 3350
F 0 "TP1" V 5500 3650 50  0000 L CNN
F 1 "Prog" V 5595 3538 50  0000 L CNN
F 2 "TestPoint:TestPoint_Pad_D1.0mm" H 5750 3350 50  0001 C CNN
F 3 "~" H 5750 3350 50  0001 C CNN
	1    5550 3350
	0    1    1    0   
$EndComp
$Comp
L Regulator_Linear:MIC5504-3.3YM5 U2
U 1 1 5E89B9C2
P 6450 2450
F 0 "U2" H 6450 2817 50  0000 C CNN
F 1 "MIC5504-3.3YM5" H 6450 2726 50  0000 C CNN
F 2 "Package_TO_SOT_SMD:SOT-23-5" H 6450 2050 50  0001 C CNN
F 3 "http://ww1.microchip.com/downloads/en/DeviceDoc/MIC550X.pdf" H 6200 2700 50  0001 C CNN
	1    6450 2450
	1    0    0    -1  
$EndComp
NoConn ~ 6050 2550
$Comp
L Device:C_Small C3
U 1 1 5E89BA5F
P 5950 2450
F 0 "C3" H 5800 2500 50  0000 L CNN
F 1 "1uF" H 5800 2350 50  0000 L CNN
F 2 "Capacitor_SMD:C_0603_1608Metric_Pad1.05x0.95mm_HandSolder" H 5950 2450 50  0001 C CNN
F 3 "~" H 5950 2450 50  0001 C CNN
	1    5950 2450
	1    0    0    -1  
$EndComp
$Comp
L Device:C_Small C5
U 1 1 5E89BB02
P 6850 2450
F 0 "C5" H 6942 2496 50  0000 L CNN
F 1 "1uF" H 6942 2405 50  0000 L CNN
F 2 "Capacitor_SMD:C_0603_1608Metric_Pad1.05x0.95mm_HandSolder" H 6850 2450 50  0001 C CNN
F 3 "~" H 6850 2450 50  0001 C CNN
	1    6850 2450
	1    0    0    -1  
$EndComp
Wire Wire Line
	5950 2350 6050 2350
Wire Wire Line
	5950 2550 5950 2750
Wire Wire Line
	5950 2750 6450 2750
Wire Wire Line
	6450 2750 6850 2750
Wire Wire Line
	6850 2750 6850 2550
Connection ~ 6450 2750
$Comp
L power:VCC #PWR06
U 1 1 5E89BD18
P 5950 2350
F 0 "#PWR06" H 5950 2200 50  0001 C CNN
F 1 "VCC" H 5967 2523 50  0000 C CNN
F 2 "" H 5950 2350 50  0001 C CNN
F 3 "" H 5950 2350 50  0001 C CNN
	1    5950 2350
	1    0    0    -1  
$EndComp
Connection ~ 5950 2350
$Comp
L power:+3.3V #PWR09
U 1 1 5E89BE0B
P 6850 2350
F 0 "#PWR09" H 6850 2200 50  0001 C CNN
F 1 "+3.3V" H 7000 2500 50  0000 C CNN
F 2 "" H 6850 2350 50  0001 C CNN
F 3 "" H 6850 2350 50  0001 C CNN
	1    6850 2350
	1    0    0    -1  
$EndComp
Connection ~ 6850 2350
$Comp
L power:+3.3V #PWR07
U 1 1 5E89C55C
P 6500 3500
F 0 "#PWR07" H 6500 3350 50  0001 C CNN
F 1 "+3.3V" V 6515 3628 50  0000 L CNN
F 2 "" H 6500 3500 50  0001 C CNN
F 3 "" H 6500 3500 50  0001 C CNN
	1    6500 3500
	0    -1   -1   0   
$EndComp
Text GLabel 5550 3250 2    50   Input ~ 0
NPNB
$Comp
L Device:Q_NPN_BEC Q1
U 1 1 5E89CBDC
P 7300 4050
F 0 "Q1" H 7491 4096 50  0000 L CNN
F 1 "Q_NPN_BEC" H 7491 4005 50  0000 L CNN
F 2 "Package_TO_SOT_SMD:SOT-23_Handsoldering" H 7500 4150 50  0001 C CNN
F 3 "~" H 7300 4050 50  0001 C CNN
	1    7300 4050
	1    0    0    -1  
$EndComp
$Comp
L Device:R_Small R3
U 1 1 5E89CFFF
P 7000 4050
F 0 "R3" V 6804 4050 50  0000 C CNN
F 1 "1k" V 6895 4050 50  0000 C CNN
F 2 "Resistor_SMD:R_0805_2012Metric_Pad1.15x1.40mm_HandSolder" H 7000 4050 50  0001 C CNN
F 3 "~" H 7000 4050 50  0001 C CNN
	1    7000 4050
	0    1    1    0   
$EndComp
Text GLabel 6500 4050 0    50   Input ~ 0
NPNB
$Comp
L power:GND #PWR010
U 1 1 5E89D4E7
P 7400 4250
F 0 "#PWR010" H 7400 4000 50  0001 C CNN
F 1 "GND" H 7405 4077 50  0000 C CNN
F 2 "" H 7400 4250 50  0001 C CNN
F 3 "" H 7400 4250 50  0001 C CNN
	1    7400 4250
	1    0    0    -1  
$EndComp
$Comp
L Switch:SW_Push SW1
U 1 1 5E89DB1A
P 4850 3900
F 0 "SW1" H 4850 4093 50  0000 C CNN
F 1 "SW_Push" H 4850 4094 50  0001 C CNN
F 2 "custom-footprints:5.2mm-smd-button" H 4850 4100 50  0001 C CNN
F 3 "" H 4850 4100 50  0001 C CNN
	1    4850 3900
	1    0    0    -1  
$EndComp
$Comp
L Switch:SW_Push SW2
U 1 1 5E89DB95
P 4850 4150
F 0 "SW2" H 4850 4343 50  0000 C CNN
F 1 "SW_Push" H 4850 4344 50  0001 C CNN
F 2 "custom-footprints:5.2mm-smd-button" H 4850 4350 50  0001 C CNN
F 3 "" H 4850 4350 50  0001 C CNN
	1    4850 4150
	1    0    0    -1  
$EndComp
Wire Wire Line
	5050 4150 5050 3900
$Comp
L Device:R_Small R1
U 1 1 5E89DCB2
P 5150 3900
F 0 "R1" V 5346 3900 50  0000 C CNN
F 1 "1k" V 5255 3900 50  0000 C CNN
F 2 "Resistor_SMD:R_0805_2012Metric_Pad1.15x1.40mm_HandSolder" H 5150 3900 50  0001 C CNN
F 3 "~" H 5150 3900 50  0001 C CNN
	1    5150 3900
	0    -1   -1   0   
$EndComp
Connection ~ 5050 3900
$Comp
L power:GND #PWR04
U 1 1 5E89DDAA
P 5250 3900
F 0 "#PWR04" H 5250 3650 50  0001 C CNN
F 1 "GND" H 5255 3727 50  0000 C CNN
F 2 "" H 5250 3900 50  0001 C CNN
F 3 "" H 5250 3900 50  0001 C CNN
	1    5250 3900
	1    0    0    -1  
$EndComp
Text GLabel 4650 3900 0    50   Input ~ 0
PA6
Text GLabel 4650 4150 0    50   Input ~ 0
PA7
Text GLabel 4550 3250 0    50   Input ~ 0
PA6
Text GLabel 4550 3350 0    50   Input ~ 0
PA7
Wire Wire Line
	7400 3500 7400 3700
Wire Wire Line
	7000 3700 7400 3700
Wire Wire Line
	6800 3700 6500 3700
Wire Wire Line
	6500 3700 6500 3500
Connection ~ 6500 3500
Wire Wire Line
	7400 3700 7400 3850
Connection ~ 7400 3700
$Comp
L Device:LED_Small D1
U 1 1 5E89FF5C
P 6650 4150
F 0 "D1" V 6696 4082 50  0000 R CNN
F 1 "Red" V 6605 4082 50  0000 R CNN
F 2 "LED_SMD:LED_0805_2012Metric_Pad1.15x1.40mm_HandSolder" V 6650 4150 50  0001 C CNN
F 3 "~" V 6650 4150 50  0001 C CNN
	1    6650 4150
	0    -1   -1   0   
$EndComp
$Comp
L Device:R_Small R2
U 1 1 5E8A0104
P 6650 4350
F 0 "R2" H 6709 4396 50  0000 L CNN
F 1 "4.7k" H 6709 4305 50  0000 L CNN
F 2 "Resistor_SMD:R_0805_2012Metric_Pad1.15x1.40mm_HandSolder" H 6650 4350 50  0001 C CNN
F 3 "~" H 6650 4350 50  0001 C CNN
	1    6650 4350
	1    0    0    -1  
$EndComp
$Comp
L power:GND #PWR08
U 1 1 5E8A01FF
P 6650 4450
F 0 "#PWR08" H 6650 4200 50  0001 C CNN
F 1 "GND" H 6655 4277 50  0000 C CNN
F 2 "" H 6650 4450 50  0001 C CNN
F 3 "" H 6650 4450 50  0001 C CNN
	1    6650 4450
	1    0    0    -1  
$EndComp
Wire Wire Line
	6500 4050 6650 4050
Connection ~ 6650 4050
Wire Wire Line
	6650 4050 6900 4050
$Comp
L Device:L_Small L1
U 1 1 5E8A1155
P 8000 3350
F 0 "L1" H 8047 3396 50  0000 L CNN
F 1 "100nH" H 8047 3305 50  0000 L CNN
F 2 "Inductor_SMD:L_0805_2012Metric_Pad1.15x1.40mm_HandSolder" H 8000 3350 50  0001 C CNN
F 3 "~" H 8000 3350 50  0001 C CNN
	1    8000 3350
	1    0    0    -1  
$EndComp
$Comp
L power:GND #PWR011
U 1 1 5E8A1233
P 8000 3450
F 0 "#PWR011" H 8000 3200 50  0001 C CNN
F 1 "GND" H 8005 3277 50  0000 C CNN
F 2 "" H 8000 3450 50  0001 C CNN
F 3 "" H 8000 3450 50  0001 C CNN
	1    8000 3450
	1    0    0    -1  
$EndComp
Text GLabel 7400 3100 2    50   Input ~ 0
ANT
Text GLabel 7950 3150 0    50   Input ~ 0
ANT
Wire Wire Line
	8000 3250 8000 3150
Wire Wire Line
	8000 3150 7950 3150
Connection ~ 8000 3150
$Comp
L Device:CP_Small C6
U 1 1 5E8A1D68
P 8750 3600
F 0 "C6" H 8662 3554 50  0000 R CNN
F 1 "100uF" H 8662 3645 50  0000 R CNN
F 2 "Capacitor_SMD:CP_Elec_6.3x7.7" H 8750 3600 50  0001 C CNN
F 3 "~" H 8750 3600 50  0001 C CNN
	1    8750 3600
	-1   0    0    1   
$EndComp
$Comp
L Device:CP_Small C7
U 1 1 5E8A1E18
P 8350 3600
F 0 "C7" H 8262 3554 50  0000 R CNN
F 1 "100uF" H 8262 3645 50  0000 R CNN
F 2 "Capacitor_SMD:CP_Elec_6.3x7.7" H 8350 3600 50  0001 C CNN
F 3 "~" H 8350 3600 50  0001 C CNN
	1    8350 3600
	-1   0    0    1   
$EndComp
Text GLabel 8750 3750 2    50   Input ~ 0
LOUT
Text GLabel 8350 3750 0    50   Input ~ 0
ROUT
Wire Wire Line
	8350 3750 8350 3700
Wire Wire Line
	8750 3750 8750 3700
Text GLabel 7400 3300 2    50   Input ~ 0
ROUT
Text GLabel 7400 3400 2    50   Input ~ 0
LOUT
Text Notes 4350 3250 2    50   ~ 0
Input Pullup
Text Notes 4350 3350 2    50   ~ 0
Input Pullup
$Comp
L power:GND #PWR0101
U 1 1 5E8A5154
P 6450 2750
F 0 "#PWR0101" H 6450 2500 50  0001 C CNN
F 1 "GND" H 6455 2577 50  0000 C CNN
F 2 "" H 6450 2750 50  0001 C CNN
F 3 "" H 6450 2750 50  0001 C CNN
	1    6450 2750
	1    0    0    -1  
$EndComp
$Comp
L KiCad-stuff:PJ307-5 J1
U 1 1 5E8AB2AA
P 8550 3200
F 0 "J1" H 8828 3215 50  0000 L CNN
F 1 "PJ307-5" H 8828 3124 50  0000 L CNN
F 2 "custom-footprints:pj-307-5" H 8550 3200 50  0001 C CNN
F 3 "" H 8550 3200 50  0001 C CNN
	1    8550 3200
	1    0    0    -1  
$EndComp
Wire Wire Line
	8000 3150 8550 3150
NoConn ~ 8650 3500
NoConn ~ 8450 3500
$Comp
L Mechanical:MountingHole H1
U 1 1 5E8AD471
P 7550 2350
F 0 "H1" H 7650 2350 50  0000 L CNN
F 1 "MountingHole" H 7650 2305 50  0001 L CNN
F 2 "MountingHole:MountingHole_2.7mm_M2.5_Pad_Via" H 7550 2350 50  0001 C CNN
F 3 "~" H 7550 2350 50  0001 C CNN
	1    7550 2350
	1    0    0    -1  
$EndComp
$Comp
L Mechanical:MountingHole H3
U 1 1 5E8AD513
P 7850 2350
F 0 "H3" H 7950 2350 50  0000 L CNN
F 1 "MountingHole" H 7950 2305 50  0001 L CNN
F 2 "MountingHole:MountingHole_2.7mm_M2.5_Pad_Via" H 7850 2350 50  0001 C CNN
F 3 "~" H 7850 2350 50  0001 C CNN
	1    7850 2350
	1    0    0    -1  
$EndComp
$Comp
L Mechanical:MountingHole H4
U 1 1 5E8AD557
P 7850 2600
F 0 "H4" H 7950 2600 50  0000 L CNN
F 1 "MountingHole" H 7950 2555 50  0001 L CNN
F 2 "MountingHole:MountingHole_2.7mm_M2.5_Pad_Via" H 7850 2600 50  0001 C CNN
F 3 "~" H 7850 2600 50  0001 C CNN
	1    7850 2600
	1    0    0    -1  
$EndComp
$Comp
L Mechanical:MountingHole H2
U 1 1 5E8AD59F
P 7550 2600
F 0 "H2" H 7650 2600 50  0000 L CNN
F 1 "MountingHole" H 7650 2555 50  0001 L CNN
F 2 "MountingHole:MountingHole_2.7mm_M2.5_Pad_Via" H 7550 2600 50  0001 C CNN
F 3 "~" H 7550 2600 50  0001 C CNN
	1    7550 2600
	1    0    0    -1  
$EndComp
$EndSCHEMATC
