(export (version D)
  (design
    (source /home/cody/Repos/Gitlab/tiny5807/tiny5807/tiny5807.sch)
    (date "Sat 18 Jan 2020 04:19:24 AM CST")
    (tool "Eeschema 5.0.2+dfsg1-1")
    (sheet (number 1) (name /) (tstamps /)
      (title_block
        (title tiny5807)
        (company)
        (rev v04)
        (date 2020-01-18)
        (source tiny5807.sch)
        (comment (number 1) (value gitlab.com/onii))
        (comment (number 2) (value ""))
        (comment (number 3) (value ""))
        (comment (number 4) (value "")))))
  (components
    (comp (ref U1)
      (value ATtiny402-SS)
      (footprint Package_SO:SOIC-8_3.9x4.9mm_P1.27mm)
      (datasheet http://ww1.microchip.com/downloads/en/DeviceDoc/ATtiny202-402-AVR-MCU-with-Core-Independent-Peripherals_and-picoPower-40001969A.pdf)
      (libsource (lib tiny5807) (part ATtiny402-SS) (description "20MHz, 4kB Flash, 256B SRAM, 128B EEPROM, SOIC-8"))
      (sheetpath (names /) (tstamps /))
      (tstamp 5E10E699))
    (comp (ref U2)
      (value RDA5807M)
      (footprint footprints:RDA5807M_SMD)
      (libsource (lib tiny5807) (part RDA5807M) (description ""))
      (sheetpath (names /) (tstamps /))
      (tstamp 5E10E7AC))
    (comp (ref R1)
      (value 5k)
      (footprint Resistor_SMD:R_0805_2012Metric_Pad1.15x1.40mm_HandSolder)
      (datasheet ~)
      (libsource (lib Device) (part R) (description Resistor))
      (sheetpath (names /) (tstamps /))
      (tstamp 5E10E9C5))
    (comp (ref R2)
      (value 5k)
      (footprint Resistor_SMD:R_0805_2012Metric_Pad1.15x1.40mm_HandSolder)
      (datasheet ~)
      (libsource (lib Device) (part R) (description Resistor))
      (sheetpath (names /) (tstamps /))
      (tstamp 5E10EA31))
    (comp (ref R3)
      (value 1k)
      (footprint Resistor_SMD:R_0805_2012Metric_Pad1.15x1.40mm_HandSolder)
      (datasheet ~)
      (libsource (lib Device) (part R) (description Resistor))
      (sheetpath (names /) (tstamps /))
      (tstamp 5E10EDBA))
    (comp (ref D1)
      (value "Red LED")
      (footprint LED_SMD:LED_0805_2012Metric_Pad1.15x1.40mm_HandSolder)
      (datasheet ~)
      (libsource (lib Device) (part LED) (description "Light emitting diode"))
      (sheetpath (names /) (tstamps /))
      (tstamp 5E10EE9F))
    (comp (ref SW1)
      (value "Push Btn")
      (footprint Button_Switch_THT:SW_PUSH_6mm)
      (libsource (lib Switch) (part SW_Push) (description "Push button switch, generic, two pins"))
      (sheetpath (names /) (tstamps /))
      (tstamp 5E10F358))
    (comp (ref SW2)
      (value "Push Btn")
      (footprint Button_Switch_THT:SW_PUSH_6mm)
      (libsource (lib Switch) (part SW_Push) (description "Push button switch, generic, two pins"))
      (sheetpath (names /) (tstamps /))
      (tstamp 5E10F3B0))
    (comp (ref J1)
      (value PJ307-5)
      (footprint footprints:pj-307-5)
      (libsource (lib tiny5807) (part PJ307-5) (description ""))
      (sheetpath (names /) (tstamps /))
      (tstamp 5E122919))
    (comp (ref J2)
      (value PROG)
      (footprint Connector_PinHeader_2.54mm:PinHeader_1x03_P2.54mm_Vertical)
      (datasheet ~)
      (libsource (lib Connector) (part Conn_01x03_Female) (description "Generic connector, single row, 01x03, script generated (kicad-library-utils/schlib/autogen/connector/)"))
      (sheetpath (names /) (tstamps /))
      (tstamp 5E1520A4))
    (comp (ref L1)
      (value 100nH)
      (footprint Inductor_SMD:L_0805_2012Metric_Pad1.15x1.40mm_HandSolder)
      (datasheet ~)
      (libsource (lib Device) (part L) (description Inductor))
      (sheetpath (names /) (tstamps /))
      (tstamp 5E22EACC))
    (comp (ref C3)
      (value 22pF)
      (footprint Capacitor_SMD:C_0805_2012Metric_Pad1.15x1.40mm_HandSolder)
      (datasheet ~)
      (libsource (lib Device) (part C) (description "Unpolarized capacitor"))
      (sheetpath (names /) (tstamps /))
      (tstamp 5E22EB7F))
    (comp (ref C7)
      (value 47uF)
      (footprint Capacitor_SMD:C_0805_2012Metric_Pad1.15x1.40mm_HandSolder)
      (datasheet ~)
      (libsource (lib Device) (part CP) (description "Polarized capacitor"))
      (sheetpath (names /) (tstamps /))
      (tstamp 5E22C62D))
    (comp (ref C8)
      (value 47uF)
      (footprint Capacitor_SMD:C_0805_2012Metric_Pad1.15x1.40mm_HandSolder)
      (datasheet ~)
      (libsource (lib Device) (part CP) (description "Polarized capacitor"))
      (sheetpath (names /) (tstamps /))
      (tstamp 5E22C6BB))
    (comp (ref FB1)
      (value Ferrite_Bead)
      (footprint Inductor_SMD:L_0805_2012Metric_Pad1.15x1.40mm_HandSolder)
      (datasheet ~)
      (libsource (lib Device) (part Ferrite_Bead) (description "Ferrite bead"))
      (sheetpath (names /) (tstamps /))
      (tstamp 5E22C7C0))
    (comp (ref FB2)
      (value Ferrite_Bead)
      (footprint Inductor_SMD:L_0805_2012Metric_Pad1.15x1.40mm_HandSolder)
      (datasheet ~)
      (libsource (lib Device) (part Ferrite_Bead) (description "Ferrite bead"))
      (sheetpath (names /) (tstamps /))
      (tstamp 5E22CE58))
    (comp (ref C4)
      (value 100nF)
      (footprint Capacitor_SMD:C_0805_2012Metric_Pad1.15x1.40mm_HandSolder)
      (datasheet ~)
      (libsource (lib Device) (part C_Small) (description "Unpolarized capacitor, small symbol"))
      (sheetpath (names /) (tstamps /))
      (tstamp 5E22D9D6))
    (comp (ref C2)
      (value 10uF)
      (footprint Capacitor_SMD:C_0805_2012Metric_Pad1.15x1.40mm_HandSolder)
      (datasheet ~)
      (libsource (lib Device) (part CP) (description "Polarized capacitor"))
      (sheetpath (names /) (tstamps /))
      (tstamp 5E22DA9D))
    (comp (ref C5)
      (value 100nF)
      (footprint Capacitor_SMD:C_0805_2012Metric_Pad1.15x1.40mm_HandSolder)
      (datasheet ~)
      (libsource (lib Device) (part C_Small) (description "Unpolarized capacitor, small symbol"))
      (sheetpath (names /) (tstamps /))
      (tstamp 5E23009C))
    (comp (ref C6)
      (value 10uF)
      (footprint Capacitor_SMD:C_0805_2012Metric_Pad1.15x1.40mm_HandSolder)
      (datasheet ~)
      (libsource (lib Device) (part CP) (description "Polarized capacitor"))
      (sheetpath (names /) (tstamps /))
      (tstamp 5E2300A2))
    (comp (ref U3)
      (value TLV73330PDBVT)
      (footprint footprints:TLV73330PDBVT)
      (libsource (lib tiny5807) (part TLV73330PDBVT) (description ""))
      (sheetpath (names /) (tstamps /))
      (tstamp 5E2395F5))
    (comp (ref C1)
      (value 100nF)
      (footprint Capacitor_SMD:C_0805_2012Metric_Pad1.15x1.40mm_HandSolder)
      (datasheet ~)
      (libsource (lib Device) (part C_Small) (description "Unpolarized capacitor, small symbol"))
      (sheetpath (names /) (tstamps /))
      (tstamp 5E23A77B)))
  (libparts
    (libpart (lib Connector) (part Conn_01x03_Female)
      (description "Generic connector, single row, 01x03, script generated (kicad-library-utils/schlib/autogen/connector/)")
      (docs ~)
      (footprints
        (fp Connector*:*_1x??_*))
      (fields
        (field (name Reference) J)
        (field (name Value) Conn_01x03_Female))
      (pins
        (pin (num 1) (name Pin_1) (type passive))
        (pin (num 2) (name Pin_2) (type passive))
        (pin (num 3) (name Pin_3) (type passive))))
    (libpart (lib Device) (part C)
      (description "Unpolarized capacitor")
      (docs ~)
      (footprints
        (fp C_*))
      (fields
        (field (name Reference) C)
        (field (name Value) C))
      (pins
        (pin (num 1) (name ~) (type passive))
        (pin (num 2) (name ~) (type passive))))
    (libpart (lib Device) (part CP)
      (description "Polarized capacitor")
      (docs ~)
      (footprints
        (fp CP_*))
      (fields
        (field (name Reference) C)
        (field (name Value) CP))
      (pins
        (pin (num 1) (name ~) (type passive))
        (pin (num 2) (name ~) (type passive))))
    (libpart (lib Device) (part C_Small)
      (description "Unpolarized capacitor, small symbol")
      (docs ~)
      (footprints
        (fp C_*))
      (fields
        (field (name Reference) C)
        (field (name Value) C_Small))
      (pins
        (pin (num 1) (name ~) (type passive))
        (pin (num 2) (name ~) (type passive))))
    (libpart (lib Device) (part Ferrite_Bead)
      (description "Ferrite bead")
      (docs ~)
      (footprints
        (fp Inductor_*)
        (fp L_*)
        (fp *Ferrite*))
      (fields
        (field (name Reference) FB)
        (field (name Value) Ferrite_Bead))
      (pins
        (pin (num 1) (name ~) (type passive))
        (pin (num 2) (name ~) (type passive))))
    (libpart (lib Device) (part L)
      (description Inductor)
      (docs ~)
      (footprints
        (fp Choke_*)
        (fp *Coil*)
        (fp Inductor_*)
        (fp L_*))
      (fields
        (field (name Reference) L)
        (field (name Value) L))
      (pins
        (pin (num 1) (name 1) (type passive))
        (pin (num 2) (name 2) (type passive))))
    (libpart (lib Device) (part LED)
      (description "Light emitting diode")
      (docs ~)
      (footprints
        (fp LED*)
        (fp LED_SMD:*)
        (fp LED_THT:*))
      (fields
        (field (name Reference) D)
        (field (name Value) LED))
      (pins
        (pin (num 1) (name K) (type passive))
        (pin (num 2) (name A) (type passive))))
    (libpart (lib Device) (part R)
      (description Resistor)
      (docs ~)
      (footprints
        (fp R_*))
      (fields
        (field (name Reference) R)
        (field (name Value) R))
      (pins
        (pin (num 1) (name ~) (type passive))
        (pin (num 2) (name ~) (type passive))))
    (libpart (lib Switch) (part SW_Push)
      (description "Push button switch, generic, two pins")
      (fields
        (field (name Reference) SW)
        (field (name Value) SW_Push))
      (pins
        (pin (num 1) (name 1) (type passive))
        (pin (num 2) (name 2) (type passive))))
    (libpart (lib tiny5807) (part ATtiny202-SS)
      (aliases
        (alias ATtiny402-SS)
        (alias ATtiny212-SS)
        (alias ATtiny412-SS))
      (description "20MHz, 2kB Flash, 128B SRAM, 64B EEPROM, SOIC-8")
      (docs http://ww1.microchip.com/downloads/en/DeviceDoc/ATtiny202-402-AVR-MCU-with-Core-Independent-Peripherals_and-picoPower-40001969A.pdf)
      (footprints
        (fp SOIC*3.9x4.9mm*P1.27mm*))
      (fields
        (field (name Reference) U)
        (field (name Value) ATtiny202-SS)
        (field (name Footprint) Package_SO:SOIC-8_3.9x4.9mm_P1.27mm))
      (pins
        (pin (num 1) (name VCC) (type power_in))
        (pin (num 2) (name PA6) (type 3state))
        (pin (num 3) (name PA7) (type 3state))
        (pin (num 4) (name PA1) (type 3state))
        (pin (num 5) (name PA2) (type 3state))
        (pin (num 6) (name ~RESET~/PA0) (type 3state))
        (pin (num 7) (name PA3) (type 3state))
        (pin (num 8) (name GND) (type power_in))))
    (libpart (lib tiny5807) (part PJ307-5)
      (fields
        (field (name Reference) J)
        (field (name Value) PJ307-5))
      (pins
        (pin (num 1) (name S) (type input))
        (pin (num 2) (name T) (type input))
        (pin (num 3) (name Sw) (type input))
        (pin (num 4) (name Sw) (type input))
        (pin (num 5) (name R) (type input))))
    (libpart (lib tiny5807) (part RDA5807M)
      (footprints
        (fp RDA5807M_SMD))
      (fields
        (field (name Reference) U)
        (field (name Value) RDA5807M))
      (pins
        (pin (num 1) (name SDA) (type BiDi))
        (pin (num 2) (name SCL) (type input))
        (pin (num 3) (name N.C.) (type NotConnected))
        (pin (num 4) (name N.C.) (type NotConnected))
        (pin (num 5) (name VCC) (type power_in))
        (pin (num 6) (name GND) (type power_in))
        (pin (num 7) (name L.OUT) (type output))
        (pin (num 8) (name ROUT) (type output))
        (pin (num 9) (name N.C.) (type NotConnected))
        (pin (num 10) (name ANT) (type input))))
    (libpart (lib tiny5807) (part TLV73330PDBVT)
      (footprints
        (fp DBV5)
        (fp DBV5-M)
        (fp DBV5-L))
      (fields
        (field (name Reference) U)
        (field (name Value) TLV73330PDBVT)
        (field (name Footprint) DBV5))
      (pins
        (pin (num 1) (name IN) (type unspc))
        (pin (num 2) (name GND) (type power_in))
        (pin (num 3) (name EN) (type unspc))
        (pin (num 4) (name NC) (type NotConnected))
        (pin (num 5) (name OUT) (type output)))))
  (libraries
    (library (logical Connector)
      (uri /usr/share/kicad/library/Connector.lib))
    (library (logical Device)
      (uri /usr/share/kicad/library/Device.lib))
    (library (logical Switch)
      (uri /usr/share/kicad/library/Switch.lib))
    (library (logical tiny5807)
      (uri /home/cody/Repos/Gitlab/tiny5807/tiny5807/tiny5807.lib)))
  (nets
    (net (code 1) (name "Net-(C8-Pad2)")
      (node (ref C8) (pin 2))
      (node (ref J1) (pin 2)))
    (net (code 2) (name "Net-(C7-Pad1)")
      (node (ref C7) (pin 1))
      (node (ref FB1) (pin 1)))
    (net (code 3) (name "Net-(C7-Pad2)")
      (node (ref C7) (pin 2))
      (node (ref J1) (pin 5)))
    (net (code 4) (name "Net-(C8-Pad1)")
      (node (ref FB2) (pin 1))
      (node (ref C8) (pin 1)))
    (net (code 5) (name VCC)
      (node (ref C1) (pin 1))
      (node (ref C4) (pin 1))
      (node (ref C2) (pin 1))
      (node (ref J2) (pin 1))
      (node (ref U1) (pin 1))
      (node (ref U3) (pin 3))
      (node (ref U3) (pin 1)))
    (net (code 6) (name "Net-(U3-Pad4)")
      (node (ref U3) (pin 4)))
    (net (code 7) (name /LDO)
      (node (ref U2) (pin 5))
      (node (ref U3) (pin 5))
      (node (ref C6) (pin 1))
      (node (ref C5) (pin 1)))
    (net (code 8) (name "Net-(R2-Pad1)")
      (node (ref U2) (pin 2))
      (node (ref R2) (pin 1)))
    (net (code 9) (name "Net-(R2-Pad2)")
      (node (ref U1) (pin 5))
      (node (ref R2) (pin 2)))
    (net (code 10) (name "Net-(R1-Pad2)")
      (node (ref R1) (pin 2))
      (node (ref U1) (pin 4)))
    (net (code 11) (name "Net-(R1-Pad1)")
      (node (ref R1) (pin 1))
      (node (ref U2) (pin 1)))
    (net (code 12) (name "Net-(R3-Pad1)")
      (node (ref U1) (pin 7))
      (node (ref R3) (pin 1)))
    (net (code 13) (name "Net-(D1-Pad2)")
      (node (ref D1) (pin 2))
      (node (ref R3) (pin 2)))
    (net (code 14) (name "Net-(SW2-Pad1)")
      (node (ref SW2) (pin 1))
      (node (ref U1) (pin 2)))
    (net (code 15) (name "Net-(SW1-Pad1)")
      (node (ref SW1) (pin 1))
      (node (ref U1) (pin 3)))
    (net (code 16) (name "Net-(U2-Pad3)")
      (node (ref U2) (pin 3)))
    (net (code 17) (name "Net-(U2-Pad4)")
      (node (ref U2) (pin 4)))
    (net (code 18) (name "Net-(FB2-Pad2)")
      (node (ref U2) (pin 7))
      (node (ref FB2) (pin 2)))
    (net (code 19) (name "Net-(FB1-Pad2)")
      (node (ref U2) (pin 8))
      (node (ref FB1) (pin 2)))
    (net (code 20) (name "Net-(U2-Pad9)")
      (node (ref U2) (pin 9)))
    (net (code 21) (name /RST)
      (node (ref J2) (pin 3))
      (node (ref U1) (pin 6)))
    (net (code 22) (name GND)
      (node (ref U2) (pin 6))
      (node (ref J2) (pin 2))
      (node (ref C3) (pin 2))
      (node (ref L1) (pin 2))
      (node (ref C4) (pin 2))
      (node (ref C1) (pin 2))
      (node (ref U3) (pin 2))
      (node (ref U1) (pin 8))
      (node (ref C2) (pin 2))
      (node (ref SW2) (pin 2))
      (node (ref SW1) (pin 2))
      (node (ref D1) (pin 1))
      (node (ref C5) (pin 2))
      (node (ref C6) (pin 2)))
    (net (code 23) (name "Net-(J1-Pad3)")
      (node (ref J1) (pin 3)))
    (net (code 24) (name /ANT)
      (node (ref C3) (pin 1))
      (node (ref J1) (pin 1))
      (node (ref L1) (pin 1))
      (node (ref U2) (pin 10)))
    (net (code 25) (name "Net-(J1-Pad4)")
      (node (ref J1) (pin 4)))))