%!PS-Adobe-3.0
%%Creator: PCBNEW
%%CreationDate: Wed Apr  8 23:35:23 2020
%%Title: /home/cody/Repos/Gitlab/tiny5807/gerbers/tiny5807-PTH-drl_map.ps
%%Pages: 1
%%PageOrder: Ascend
%%BoundingBox: 0 0 596 842
%%DocumentMedia: A4 595 842 0 () ()
%%Orientation: Landscape
%%EndComments
%%BeginProlog
/line { newpath moveto lineto stroke } bind def
/cir0 { newpath 0 360 arc stroke } bind def
/cir1 { newpath 0 360 arc gsave fill grestore stroke } bind def
/cir2 { newpath 0 360 arc gsave fill grestore stroke } bind def
/arc0 { newpath arc stroke } bind def
/arc1 { newpath 4 index 4 index moveto arc closepath gsave fill
    grestore stroke } bind def
/arc2 { newpath 4 index 4 index moveto arc closepath gsave fill
    grestore stroke } bind def
/poly0 { stroke } bind def
/poly1 { closepath gsave fill grestore stroke } bind def
/poly2 { closepath gsave fill grestore stroke } bind def
/rect0 { rectstroke } bind def
/rect1 { rectfill } bind def
/rect2 { rectfill } bind def
/linemode0 { 0 setlinecap 0 setlinejoin 0 setlinewidth } bind def
/linemode1 { 1 setlinecap 1 setlinejoin } bind def
/dashedline { [200] 100 setdash } bind def
/solidline { [] 0 setdash } bind def
/phantomshow { moveto
    /KicadFont findfont 0.000001 scalefont setfont
    show } bind def
/textshow { gsave
    findfont exch scalefont setfont concat 1 scale 0 0 moveto show
    } bind def
/reencodefont {
  findfont dup length dict begin
  { 1 index /FID ne
    { def }
    { pop pop } ifelse
  } forall
  /Encoding ISOLatin1Encoding def
  currentdict
  end } bind def
/KicadFont /Helvetica reencodefont definefont pop
/KicadFont-Bold /Helvetica-Bold reencodefont definefont pop
/KicadFont-Oblique /Helvetica-Oblique reencodefont definefont pop
/KicadFont-BoldOblique /Helvetica-BoldOblique reencodefont definefont pop
%%EndProlog
%%Page: 1 1
%%BeginPageSetup
gsave
0.0072 0.0072 scale
linemode1
82680 0 translate 90 rotate
131.846 setlinewidth
%%EndPageSetup
0 0 0 setrgbcolor
155.724 setlinewidth
74037.4 42303.6 5190.79 -90 -0 arc0
0 0 0 setrgbcolor
42892.6 42303.6 5190.79 180 270 arc0
0 0 0 setrgbcolor
42892.6 73448.4 5190.79 90 180 arc0
0 0 0 setrgbcolor
74037.4 73448.4 5190.79 -0 90 arc0
0 0 0 setrgbcolor
207.632 setlinewidth
newpath
37701.8 42303.6 moveto
37701.8 73448.4 lineto
stroke
0 0 0 setrgbcolor
newpath
74037.4 37112.8 moveto
42892.6 37112.8 lineto
stroke
0 0 0 setrgbcolor
newpath
79228.2 73448.4 moveto
79228.2 42303.6 lineto
stroke
0 0 0 setrgbcolor
newpath
42892.6 78639.2 moveto
74037.4 78639.2 lineto
stroke
78.7392 setlinewidth
newpath
40530.8 73707.9 moveto
41049.9 73188.8 lineto
stroke
newpath
41049.9 73707.9 moveto
40530.8 73188.8 lineto
stroke
newpath
41146.5 75194.5 moveto
41665.6 74675.4 lineto
stroke
newpath
41665.6 75194.5 moveto
41146.5 74675.4 lineto
stroke
newpath
41146.5 72221.4 moveto
41665.6 71702.3 lineto
stroke
newpath
41665.6 72221.4 moveto
41146.5 71702.3 lineto
stroke
newpath
42633.1 75810.2 moveto
43152.2 75291.1 lineto
stroke
newpath
43152.2 75810.2 moveto
42633.1 75291.1 lineto
stroke
newpath
42633.1 71605.7 moveto
43152.2 71086.6 lineto
stroke
newpath
43152.2 71605.7 moveto
42633.1 71086.6 lineto
stroke
newpath
44119.6 75194.5 moveto
44638.7 74675.4 lineto
stroke
newpath
44638.7 75194.5 moveto
44119.6 74675.4 lineto
stroke
newpath
44119.6 72221.4 moveto
44638.7 71702.3 lineto
stroke
newpath
44638.7 72221.4 moveto
44119.6 71702.3 lineto
stroke
newpath
44735.4 73707.9 moveto
45254.4 73188.8 lineto
stroke
newpath
45254.4 73707.9 moveto
44735.4 73188.8 lineto
stroke
newpath
71675.6 42563.2 moveto
72194.6 42044.1 lineto
stroke
newpath
72194.6 42563.2 moveto
71675.6 42044.1 lineto
stroke
newpath
72291.3 44049.7 moveto
72810.4 43530.6 lineto
stroke
newpath
72810.4 44049.7 moveto
72291.3 43530.6 lineto
stroke
newpath
72291.3 41076.6 moveto
72810.4 40557.5 lineto
stroke
newpath
72810.4 41076.6 moveto
72291.3 40557.5 lineto
stroke
newpath
73777.8 44665.4 moveto
74296.9 44146.4 lineto
stroke
newpath
74296.9 44665.4 moveto
73777.8 44146.4 lineto
stroke
newpath
73777.8 40460.9 moveto
74296.9 39941.8 lineto
stroke
newpath
74296.9 40460.9 moveto
73777.8 39941.8 lineto
stroke
newpath
75264.4 44049.7 moveto
75783.5 43530.6 lineto
stroke
newpath
75783.5 44049.7 moveto
75264.4 43530.6 lineto
stroke
newpath
75264.4 41076.6 moveto
75783.5 40557.5 lineto
stroke
newpath
75783.5 41076.6 moveto
75264.4 40557.5 lineto
stroke
newpath
75880.1 42563.2 moveto
76399.2 42044.1 lineto
stroke
newpath
76399.2 42563.2 moveto
75880.1 42044.1 lineto
stroke
newpath
71675.6 73707.9 moveto
72194.6 73188.8 lineto
stroke
newpath
72194.6 73707.9 moveto
71675.6 73188.8 lineto
stroke
newpath
72291.3 75194.5 moveto
72810.4 74675.4 lineto
stroke
newpath
72810.4 75194.5 moveto
72291.3 74675.4 lineto
stroke
newpath
72291.3 72221.4 moveto
72810.4 71702.3 lineto
stroke
newpath
72810.4 72221.4 moveto
72291.3 71702.3 lineto
stroke
newpath
73777.8 75810.2 moveto
74296.9 75291.1 lineto
stroke
newpath
74296.9 75810.2 moveto
73777.8 75291.1 lineto
stroke
newpath
73777.8 71605.7 moveto
74296.9 71086.6 lineto
stroke
newpath
74296.9 71605.7 moveto
73777.8 71086.6 lineto
stroke
newpath
75264.4 75194.5 moveto
75783.5 74675.4 lineto
stroke
newpath
75783.5 75194.5 moveto
75264.4 74675.4 lineto
stroke
newpath
75264.4 72221.4 moveto
75783.5 71702.3 lineto
stroke
newpath
75783.5 72221.4 moveto
75264.4 71702.3 lineto
stroke
newpath
75880.1 73707.9 moveto
76399.2 73188.8 lineto
stroke
newpath
76399.2 73707.9 moveto
75880.1 73188.8 lineto
stroke
newpath
40530.8 42563.2 moveto
41049.9 42044.1 lineto
stroke
newpath
41049.9 42563.2 moveto
40530.8 42044.1 lineto
stroke
newpath
41146.5 44049.7 moveto
41665.6 43530.6 lineto
stroke
newpath
41665.6 44049.7 moveto
41146.5 43530.6 lineto
stroke
newpath
41146.5 41076.6 moveto
41665.6 40557.5 lineto
stroke
newpath
41665.6 41076.6 moveto
41146.5 40557.5 lineto
stroke
newpath
42633.1 44665.4 moveto
43152.2 44146.4 lineto
stroke
newpath
43152.2 44665.4 moveto
42633.1 44146.4 lineto
stroke
newpath
42633.1 40460.9 moveto
43152.2 39941.8 lineto
stroke
newpath
43152.2 40460.9 moveto
42633.1 39941.8 lineto
stroke
newpath
44119.6 44049.7 moveto
44638.7 43530.6 lineto
stroke
newpath
44638.7 44049.7 moveto
44119.6 43530.6 lineto
stroke
newpath
44119.6 41076.6 moveto
44638.7 40557.5 lineto
stroke
newpath
44638.7 41076.6 moveto
44119.6 40557.5 lineto
stroke
newpath
44735.4 42563.2 moveto
45254.4 42044.1 lineto
stroke
newpath
45254.4 42563.2 moveto
44735.4 42044.1 lineto
stroke
40720.8 46097.1 263.692 cir0
44412.5 58754.3 263.692 cir0
44412.5 55590 263.692 cir0
45994.6 63237.1 263.692 cir0
46096.6 61775.8 263.692 cir0
47840.5 42141.7 263.692 cir0
47840.5 39768.4 263.692 cir0
48895.3 73521.1 263.692 cir0
49686.3 68247.2 263.692 cir0
49686.3 66137.7 263.692 cir0
49950 42141.7 263.692 cir0
49950 39768.4 263.692 cir0
51268.5 59281.7 263.692 cir0
51532.2 64028.1 263.692 cir0
52850.6 42141.7 263.692 cir0
52850.6 39768.4 263.692 cir0
53905.4 49788.7 263.692 cir0
55487.6 49525.1 263.692 cir0
56014.9 54798.9 263.692 cir0
57597.1 59018 263.692 cir0
57860.8 47679.2 263.692 cir0
58388.2 52162 263.692 cir0
59102.8 73257.4 263.692 cir0
60234 67456.1 263.692 cir0
60234 66137.7 263.692 cir0
61025.1 69829.4 263.692 cir0
61025.1 57699.5 263.692 cir0
61288.8 52162 263.692 cir0
61552.5 50579.8 263.692 cir0
63925.7 42141.7 263.692 cir0
63925.7 39768.4 263.692 cir0
66562.6 59018 263.692 cir0
66826.3 42141.7 263.692 cir0
66826.3 39768.4 263.692 cir0
68408.5 62446 263.692 cir0
68935.9 42141.7 263.692 cir0
68935.9 39768.4 263.692 cir0
71572.8 61918.6 263.692 cir0
72100.2 51898.3 263.692 cir0
72363.9 64028.1 263.692 cir0
76319.3 46097.1 263.692 cir0
77374 63500.7 263.692 cir0
newpath
40720.8 51098.9 moveto
40720.8 50060.7 lineto
stroke
newpath
40201.7 50579.8 moveto
41239.9 50579.8 lineto
stroke
newpath
40720.8 48462 moveto
40720.8 47423.8 lineto
stroke
newpath
40201.7 47942.9 moveto
41239.9 47942.9 lineto
stroke
newpath
76319.3 51098.9 moveto
76319.3 50060.7 lineto
stroke
newpath
75800.2 50579.8 moveto
76838.3 50579.8 lineto
stroke
newpath
76319.3 48462 moveto
76319.3 47423.8 lineto
stroke
newpath
75800.2 47942.9 moveto
76838.3 47942.9 lineto
stroke
newpath
53363.4 45056.9 moveto
53363.4 46082.4 lineto
52337.9 46082.4 lineto
52337.9 45056.9 lineto
53363.4 45056.9 lineto
poly0
newpath
56000.3 45056.9 moveto
56000.3 46082.4 lineto
54974.8 46082.4 lineto
54974.8 45056.9 lineto
56000.3 45056.9 lineto
poly0
newpath
58900.9 40310.4 moveto
58900.9 41336 lineto
57875.4 41336 lineto
57875.4 40310.4 lineto
58900.9 40310.4 lineto
poly0
newpath
61801.6 45056.9 moveto
61801.6 46082.4 lineto
60776 46082.4 lineto
60776 45056.9 lineto
61801.6 45056.9 lineto
poly0
newpath
64438.5 45056.9 moveto
64438.5 46082.4 lineto
63412.9 46082.4 lineto
63412.9 45056.9 lineto
64438.5 45056.9 lineto
poly0
newpath
42892.6 72046.9 moveto
44294.1 73448.4 lineto
42892.6 74849.9 lineto
41491.1 73448.4 lineto
42892.6 72046.9 lineto
poly0
newpath
74037.4 40902.1 moveto
75438.9 42303.6 lineto
74037.4 43705.1 lineto
72635.9 42303.6 lineto
74037.4 40902.1 lineto
poly0
newpath
74037.4 72046.9 moveto
75438.9 73448.4 lineto
74037.4 74849.9 lineto
72635.9 73448.4 lineto
74037.4 72046.9 lineto
poly0
newpath
42892.6 40902.1 moveto
44294.1 42303.6 lineto
42892.6 43705.1 lineto
41491.1 42303.6 lineto
42892.6 40902.1 lineto
poly0
118.11 setlinewidth
0 0 0 setrgbcolor
0 0 0 setrgbcolor
newpath
38725.7 35175.5 moveto
38725.7 36356.6 lineto
39006.9 36356.6 lineto
39175.6 36300.3 lineto
39288.1 36187.9 lineto
39344.4 36075.4 lineto
39400.6 35850.4 lineto
39400.6 35681.7 lineto
39344.4 35456.7 lineto
39288.1 35344.2 lineto
39175.6 35231.7 lineto
39006.9 35175.5 lineto
38725.7 35175.5 lineto
stroke
newpath
39906.8 35175.5 moveto
39906.8 35962.9 lineto
stroke
newpath
39906.8 35737.9 moveto
39963 35850.4 lineto
40019.3 35906.6 lineto
40131.8 35962.9 lineto
40244.2 35962.9 lineto
stroke
newpath
40637.9 35175.5 moveto
40637.9 35962.9 lineto
stroke
newpath
40637.9 36356.6 moveto
40581.7 36300.3 lineto
40637.9 36244.1 lineto
40694.2 36300.3 lineto
40637.9 36356.6 lineto
40637.9 36244.1 lineto
stroke
newpath
41369.1 35175.5 moveto
41256.6 35231.7 lineto
41200.4 35344.2 lineto
41200.4 36356.6 lineto
stroke
newpath
41987.8 35175.5 moveto
41875.3 35231.7 lineto
41819 35344.2 lineto
41819 36356.6 lineto
stroke
newpath
43337.6 35175.5 moveto
43337.6 36356.6 lineto
43731.3 35512.9 lineto
44125 36356.6 lineto
44125 35175.5 lineto
stroke
newpath
45193.6 35175.5 moveto
45193.6 35794.2 lineto
45137.4 35906.6 lineto
45024.9 35962.9 lineto
44799.9 35962.9 lineto
44687.4 35906.6 lineto
stroke
newpath
45193.6 35231.7 moveto
45081.1 35175.5 lineto
44799.9 35175.5 lineto
44687.4 35231.7 lineto
44631.2 35344.2 lineto
44631.2 35456.7 lineto
44687.4 35569.2 lineto
44799.9 35625.4 lineto
45081.1 35625.4 lineto
45193.6 35681.7 lineto
stroke
newpath
45756.1 35962.9 moveto
45756.1 34781.8 lineto
stroke
newpath
45756.1 35906.6 moveto
45868.5 35962.9 lineto
46093.5 35962.9 lineto
46206 35906.6 lineto
46262.2 35850.4 lineto
46318.5 35737.9 lineto
46318.5 35400.5 lineto
46262.2 35288 lineto
46206 35231.7 lineto
46093.5 35175.5 lineto
45868.5 35175.5 lineto
45756.1 35231.7 lineto
stroke
newpath
46824.7 35288 moveto
46880.9 35231.7 lineto
46824.7 35175.5 lineto
46768.4 35231.7 lineto
46824.7 35288 lineto
46824.7 35175.5 lineto
stroke
newpath
46824.7 35906.6 moveto
46880.9 35850.4 lineto
46824.7 35794.2 lineto
46768.4 35850.4 lineto
46824.7 35906.6 lineto
46824.7 35794.2 lineto
stroke
newpath
37078.9 33489 moveto
37598 32969.9 lineto
stroke
newpath
37598 33489 moveto
37078.9 32969.9 lineto
stroke
0 0 0 setrgbcolor
0 0 0 setrgbcolor
newpath
38950.7 33876.3 moveto
39063.1 33876.3 lineto
39175.6 33820 lineto
39231.9 33763.8 lineto
39288.1 33651.3 lineto
39344.4 33426.3 lineto
39344.4 33145.1 lineto
39288.1 32920.1 lineto
39231.9 32807.7 lineto
39175.6 32751.4 lineto
39063.1 32695.2 lineto
38950.7 32695.2 lineto
38838.2 32751.4 lineto
38781.9 32807.7 lineto
38725.7 32920.1 lineto
38669.4 33145.1 lineto
38669.4 33426.3 lineto
38725.7 33651.3 lineto
38781.9 33763.8 lineto
38838.2 33820 lineto
38950.7 33876.3 lineto
stroke
newpath
39850.5 32807.7 moveto
39906.8 32751.4 lineto
39850.5 32695.2 lineto
39794.3 32751.4 lineto
39850.5 32807.7 lineto
39850.5 32695.2 lineto
stroke
newpath
40975.4 33876.3 moveto
40413 33876.3 lineto
40356.7 33313.8 lineto
40413 33370.1 lineto
40525.5 33426.3 lineto
40806.7 33426.3 lineto
40919.2 33370.1 lineto
40975.4 33313.8 lineto
41031.6 33201.4 lineto
41031.6 32920.1 lineto
40975.4 32807.7 lineto
40919.2 32751.4 lineto
40806.7 32695.2 lineto
40525.5 32695.2 lineto
40413 32751.4 lineto
40356.7 32807.7 lineto
stroke
newpath
41762.8 33876.3 moveto
41875.3 33876.3 lineto
41987.8 33820 lineto
42044 33763.8 lineto
42100.3 33651.3 lineto
42156.5 33426.3 lineto
42156.5 33145.1 lineto
42100.3 32920.1 lineto
42044 32807.7 lineto
41987.8 32751.4 lineto
41875.3 32695.2 lineto
41762.8 32695.2 lineto
41650.3 32751.4 lineto
41594.1 32807.7 lineto
41537.8 32920.1 lineto
41481.6 33145.1 lineto
41481.6 33426.3 lineto
41537.8 33651.3 lineto
41594.1 33763.8 lineto
41650.3 33820 lineto
41762.8 33876.3 lineto
stroke
newpath
42662.7 32695.2 moveto
42662.7 33482.6 lineto
stroke
newpath
42662.7 33370.1 moveto
42718.9 33426.3 lineto
42831.4 33482.6 lineto
43000.1 33482.6 lineto
43112.6 33426.3 lineto
43168.9 33313.8 lineto
43168.9 32695.2 lineto
stroke
newpath
43168.9 33313.8 moveto
43225.1 33426.3 lineto
43337.6 33482.6 lineto
43506.3 33482.6 lineto
43618.8 33426.3 lineto
43675.1 33313.8 lineto
43675.1 32695.2 lineto
stroke
newpath
44237.5 32695.2 moveto
44237.5 33482.6 lineto
stroke
newpath
44237.5 33370.1 moveto
44293.7 33426.3 lineto
44406.2 33482.6 lineto
44575 33482.6 lineto
44687.4 33426.3 lineto
44743.7 33313.8 lineto
44743.7 32695.2 lineto
stroke
newpath
44743.7 33313.8 moveto
44799.9 33426.3 lineto
44912.4 33482.6 lineto
45081.1 33482.6 lineto
45193.6 33426.3 lineto
45249.9 33313.8 lineto
45249.9 32695.2 lineto
stroke
newpath
47555.8 33932.5 moveto
46543.5 32414 lineto
stroke
newpath
49074.4 33876.3 moveto
49186.9 33876.3 lineto
49299.4 33820 lineto
49355.6 33763.8 lineto
49411.8 33651.3 lineto
49468.1 33426.3 lineto
49468.1 33145.1 lineto
49411.8 32920.1 lineto
49355.6 32807.7 lineto
49299.4 32751.4 lineto
49186.9 32695.2 lineto
49074.4 32695.2 lineto
48961.9 32751.4 lineto
48905.7 32807.7 lineto
48849.4 32920.1 lineto
48793.2 33145.1 lineto
48793.2 33426.3 lineto
48849.4 33651.3 lineto
48905.7 33763.8 lineto
48961.9 33820 lineto
49074.4 33876.3 lineto
stroke
newpath
49974.3 32807.7 moveto
50030.5 32751.4 lineto
49974.3 32695.2 lineto
49918 32751.4 lineto
49974.3 32807.7 lineto
49974.3 32695.2 lineto
stroke
newpath
50761.7 33876.3 moveto
50874.2 33876.3 lineto
50986.7 33820 lineto
51042.9 33763.8 lineto
51099.1 33651.3 lineto
51155.4 33426.3 lineto
51155.4 33145.1 lineto
51099.1 32920.1 lineto
51042.9 32807.7 lineto
50986.7 32751.4 lineto
50874.2 32695.2 lineto
50761.7 32695.2 lineto
50649.2 32751.4 lineto
50593 32807.7 lineto
50536.7 32920.1 lineto
50480.5 33145.1 lineto
50480.5 33426.3 lineto
50536.7 33651.3 lineto
50593 33763.8 lineto
50649.2 33820 lineto
50761.7 33876.3 lineto
stroke
newpath
51605.3 33763.8 moveto
51661.6 33820 lineto
51774.1 33876.3 lineto
52055.3 33876.3 lineto
52167.8 33820 lineto
52224 33763.8 lineto
52280.2 33651.3 lineto
52280.2 33538.8 lineto
52224 33370.1 lineto
51549.1 32695.2 lineto
52280.2 32695.2 lineto
stroke
newpath
53011.4 33876.3 moveto
53123.9 33876.3 lineto
53236.4 33820 lineto
53292.6 33763.8 lineto
53348.9 33651.3 lineto
53405.1 33426.3 lineto
53405.1 33145.1 lineto
53348.9 32920.1 lineto
53292.6 32807.7 lineto
53236.4 32751.4 lineto
53123.9 32695.2 lineto
53011.4 32695.2 lineto
52898.9 32751.4 lineto
52842.7 32807.7 lineto
52786.4 32920.1 lineto
52730.2 33145.1 lineto
52730.2 33426.3 lineto
52786.4 33651.3 lineto
52842.7 33763.8 lineto
52898.9 33820 lineto
53011.4 33876.3 lineto
stroke
newpath
53855 33876.3 moveto
53855 33651.3 lineto
stroke
newpath
54305 33876.3 moveto
54305 33651.3 lineto
stroke
newpath
56048.5 32245.2 moveto
55992.3 32301.5 lineto
55879.8 32470.2 lineto
55823.5 32582.7 lineto
55767.3 32751.4 lineto
55711.1 33032.6 lineto
55711.1 33257.6 lineto
55767.3 33538.8 lineto
55823.5 33707.5 lineto
55879.8 33820 lineto
55992.3 33988.8 lineto
56048.5 34045 lineto
stroke
newpath
56386 33876.3 moveto
57117.1 33876.3 lineto
56723.4 33426.3 lineto
56892.2 33426.3 lineto
57004.7 33370.1 lineto
57060.9 33313.8 lineto
57117.1 33201.4 lineto
57117.1 32920.1 lineto
57060.9 32807.7 lineto
57004.7 32751.4 lineto
56892.2 32695.2 lineto
56554.7 32695.2 lineto
56442.2 32751.4 lineto
56386 32807.7 lineto
stroke
newpath
57567.1 33763.8 moveto
57623.3 33820 lineto
57735.8 33876.3 lineto
58017 33876.3 lineto
58129.5 33820 lineto
58185.8 33763.8 lineto
58242 33651.3 lineto
58242 33538.8 lineto
58185.8 33370.1 lineto
57510.8 32695.2 lineto
58242 32695.2 lineto
stroke
newpath
59648.1 32695.2 moveto
59648.1 33876.3 lineto
stroke
newpath
60154.3 32695.2 moveto
60154.3 33313.8 lineto
60098 33426.3 lineto
59985.5 33482.6 lineto
59816.8 33482.6 lineto
59704.3 33426.3 lineto
59648.1 33370.1 lineto
stroke
newpath
60885.4 32695.2 moveto
60772.9 32751.4 lineto
60716.7 32807.7 lineto
60660.4 32920.1 lineto
60660.4 33257.6 lineto
60716.7 33370.1 lineto
60772.9 33426.3 lineto
60885.4 33482.6 lineto
61054.1 33482.6 lineto
61166.6 33426.3 lineto
61222.9 33370.1 lineto
61279.1 33257.6 lineto
61279.1 32920.1 lineto
61222.9 32807.7 lineto
61166.6 32751.4 lineto
61054.1 32695.2 lineto
60885.4 32695.2 lineto
stroke
newpath
61954 32695.2 moveto
61841.5 32751.4 lineto
61785.3 32863.9 lineto
61785.3 33876.3 lineto
stroke
newpath
62853.9 32751.4 moveto
62741.4 32695.2 lineto
62516.5 32695.2 lineto
62404 32751.4 lineto
62347.7 32863.9 lineto
62347.7 33313.8 lineto
62404 33426.3 lineto
62516.5 33482.6 lineto
62741.4 33482.6 lineto
62853.9 33426.3 lineto
62910.2 33313.8 lineto
62910.2 33201.4 lineto
62347.7 33088.9 lineto
stroke
newpath
63360.1 32751.4 moveto
63472.6 32695.2 lineto
63697.6 32695.2 lineto
63810.1 32751.4 lineto
63866.3 32863.9 lineto
63866.3 32920.1 lineto
63810.1 33032.6 lineto
63697.6 33088.9 lineto
63528.8 33088.9 lineto
63416.4 33145.1 lineto
63360.1 33257.6 lineto
63360.1 33313.8 lineto
63416.4 33426.3 lineto
63528.8 33482.6 lineto
63697.6 33482.6 lineto
63810.1 33426.3 lineto
stroke
newpath
64260 32245.2 moveto
64316.2 32301.5 lineto
64428.7 32470.2 lineto
64485 32582.7 lineto
64541.2 32751.4 lineto
64597.5 33032.6 lineto
64597.5 33257.6 lineto
64541.2 33538.8 lineto
64485 33707.5 lineto
64428.7 33820 lineto
64316.2 33988.8 lineto
64260 34045 lineto
stroke
37334.3 31670.4 263.692 cir0
0 0 0 setrgbcolor
0 0 0 setrgbcolor
newpath
38950.7 32317.2 moveto
39063.1 32317.2 lineto
39175.6 32261 lineto
39231.9 32204.7 lineto
39288.1 32092.2 lineto
39344.4 31867.3 lineto
39344.4 31586.1 lineto
39288.1 31361.1 lineto
39231.9 31248.6 lineto
39175.6 31192.4 lineto
39063.1 31136.1 lineto
38950.7 31136.1 lineto
38838.2 31192.4 lineto
38781.9 31248.6 lineto
38725.7 31361.1 lineto
38669.4 31586.1 lineto
38669.4 31867.3 lineto
38725.7 32092.2 lineto
38781.9 32204.7 lineto
38838.2 32261 lineto
38950.7 32317.2 lineto
stroke
newpath
39850.5 31248.6 moveto
39906.8 31192.4 lineto
39850.5 31136.1 lineto
39794.3 31192.4 lineto
39850.5 31248.6 lineto
39850.5 31136.1 lineto
stroke
newpath
40975.4 32317.2 moveto
40413 32317.2 lineto
40356.7 31754.8 lineto
40413 31811 lineto
40525.5 31867.3 lineto
40806.7 31867.3 lineto
40919.2 31811 lineto
40975.4 31754.8 lineto
41031.6 31642.3 lineto
41031.6 31361.1 lineto
40975.4 31248.6 lineto
40919.2 31192.4 lineto
40806.7 31136.1 lineto
40525.5 31136.1 lineto
40413 31192.4 lineto
40356.7 31248.6 lineto
stroke
newpath
42156.5 31136.1 moveto
41481.6 31136.1 lineto
stroke
newpath
41819 31136.1 moveto
41819 32317.2 lineto
41706.6 32148.5 lineto
41594.1 32036 lineto
41481.6 31979.8 lineto
stroke
newpath
42662.7 31136.1 moveto
42662.7 31923.5 lineto
stroke
newpath
42662.7 31811 moveto
42718.9 31867.3 lineto
42831.4 31923.5 lineto
43000.1 31923.5 lineto
43112.6 31867.3 lineto
43168.9 31754.8 lineto
43168.9 31136.1 lineto
stroke
newpath
43168.9 31754.8 moveto
43225.1 31867.3 lineto
43337.6 31923.5 lineto
43506.3 31923.5 lineto
43618.8 31867.3 lineto
43675.1 31754.8 lineto
43675.1 31136.1 lineto
stroke
newpath
44237.5 31136.1 moveto
44237.5 31923.5 lineto
stroke
newpath
44237.5 31811 moveto
44293.7 31867.3 lineto
44406.2 31923.5 lineto
44575 31923.5 lineto
44687.4 31867.3 lineto
44743.7 31754.8 lineto
44743.7 31136.1 lineto
stroke
newpath
44743.7 31754.8 moveto
44799.9 31867.3 lineto
44912.4 31923.5 lineto
45081.1 31923.5 lineto
45193.6 31867.3 lineto
45249.9 31754.8 lineto
45249.9 31136.1 lineto
stroke
newpath
47555.8 32373.5 moveto
46543.5 30854.9 lineto
stroke
newpath
49074.4 32317.2 moveto
49186.9 32317.2 lineto
49299.4 32261 lineto
49355.6 32204.7 lineto
49411.8 32092.2 lineto
49468.1 31867.3 lineto
49468.1 31586.1 lineto
49411.8 31361.1 lineto
49355.6 31248.6 lineto
49299.4 31192.4 lineto
49186.9 31136.1 lineto
49074.4 31136.1 lineto
48961.9 31192.4 lineto
48905.7 31248.6 lineto
48849.4 31361.1 lineto
48793.2 31586.1 lineto
48793.2 31867.3 lineto
48849.4 32092.2 lineto
48905.7 32204.7 lineto
48961.9 32261 lineto
49074.4 32317.2 lineto
stroke
newpath
49974.3 31248.6 moveto
50030.5 31192.4 lineto
49974.3 31136.1 lineto
49918 31192.4 lineto
49974.3 31248.6 lineto
49974.3 31136.1 lineto
stroke
newpath
50761.7 32317.2 moveto
50874.2 32317.2 lineto
50986.7 32261 lineto
51042.9 32204.7 lineto
51099.1 32092.2 lineto
51155.4 31867.3 lineto
51155.4 31586.1 lineto
51099.1 31361.1 lineto
51042.9 31248.6 lineto
50986.7 31192.4 lineto
50874.2 31136.1 lineto
50761.7 31136.1 lineto
50649.2 31192.4 lineto
50593 31248.6 lineto
50536.7 31361.1 lineto
50480.5 31586.1 lineto
50480.5 31867.3 lineto
50536.7 32092.2 lineto
50593 32204.7 lineto
50649.2 32261 lineto
50761.7 32317.2 lineto
stroke
newpath
51605.3 32204.7 moveto
51661.6 32261 lineto
51774.1 32317.2 lineto
52055.3 32317.2 lineto
52167.8 32261 lineto
52224 32204.7 lineto
52280.2 32092.2 lineto
52280.2 31979.8 lineto
52224 31811 lineto
51549.1 31136.1 lineto
52280.2 31136.1 lineto
stroke
newpath
53011.4 32317.2 moveto
53123.9 32317.2 lineto
53236.4 32261 lineto
53292.6 32204.7 lineto
53348.9 32092.2 lineto
53405.1 31867.3 lineto
53405.1 31586.1 lineto
53348.9 31361.1 lineto
53292.6 31248.6 lineto
53236.4 31192.4 lineto
53123.9 31136.1 lineto
53011.4 31136.1 lineto
52898.9 31192.4 lineto
52842.7 31248.6 lineto
52786.4 31361.1 lineto
52730.2 31586.1 lineto
52730.2 31867.3 lineto
52786.4 32092.2 lineto
52842.7 32204.7 lineto
52898.9 32261 lineto
53011.4 32317.2 lineto
stroke
newpath
53855 32317.2 moveto
53855 32092.2 lineto
stroke
newpath
54305 32317.2 moveto
54305 32092.2 lineto
stroke
newpath
56048.5 30686.2 moveto
55992.3 30742.4 lineto
55879.8 30911.1 lineto
55823.5 31023.6 lineto
55767.3 31192.4 lineto
55711.1 31473.6 lineto
55711.1 31698.5 lineto
55767.3 31979.8 lineto
55823.5 32148.5 lineto
55879.8 32261 lineto
55992.3 32429.7 lineto
56048.5 32485.9 lineto
stroke
newpath
57004.7 31923.5 moveto
57004.7 31136.1 lineto
stroke
newpath
56723.4 32373.5 moveto
56442.2 31529.8 lineto
57173.4 31529.8 lineto
stroke
newpath
57567.1 32204.7 moveto
57623.3 32261 lineto
57735.8 32317.2 lineto
58017 32317.2 lineto
58129.5 32261 lineto
58185.8 32204.7 lineto
58242 32092.2 lineto
58242 31979.8 lineto
58185.8 31811 lineto
57510.8 31136.1 lineto
58242 31136.1 lineto
stroke
newpath
59648.1 31136.1 moveto
59648.1 32317.2 lineto
stroke
newpath
60154.3 31136.1 moveto
60154.3 31754.8 lineto
60098 31867.3 lineto
59985.5 31923.5 lineto
59816.8 31923.5 lineto
59704.3 31867.3 lineto
59648.1 31811 lineto
stroke
newpath
60885.4 31136.1 moveto
60772.9 31192.4 lineto
60716.7 31248.6 lineto
60660.4 31361.1 lineto
60660.4 31698.5 lineto
60716.7 31811 lineto
60772.9 31867.3 lineto
60885.4 31923.5 lineto
61054.1 31923.5 lineto
61166.6 31867.3 lineto
61222.9 31811 lineto
61279.1 31698.5 lineto
61279.1 31361.1 lineto
61222.9 31248.6 lineto
61166.6 31192.4 lineto
61054.1 31136.1 lineto
60885.4 31136.1 lineto
stroke
newpath
61954 31136.1 moveto
61841.5 31192.4 lineto
61785.3 31304.8 lineto
61785.3 32317.2 lineto
stroke
newpath
62853.9 31192.4 moveto
62741.4 31136.1 lineto
62516.5 31136.1 lineto
62404 31192.4 lineto
62347.7 31304.8 lineto
62347.7 31754.8 lineto
62404 31867.3 lineto
62516.5 31923.5 lineto
62741.4 31923.5 lineto
62853.9 31867.3 lineto
62910.2 31754.8 lineto
62910.2 31642.3 lineto
62347.7 31529.8 lineto
stroke
newpath
63360.1 31192.4 moveto
63472.6 31136.1 lineto
63697.6 31136.1 lineto
63810.1 31192.4 lineto
63866.3 31304.8 lineto
63866.3 31361.1 lineto
63810.1 31473.6 lineto
63697.6 31529.8 lineto
63528.8 31529.8 lineto
63416.4 31586.1 lineto
63360.1 31698.5 lineto
63360.1 31754.8 lineto
63416.4 31867.3 lineto
63528.8 31923.5 lineto
63697.6 31923.5 lineto
63810.1 31867.3 lineto
stroke
newpath
64260 30686.2 moveto
64316.2 30742.4 lineto
64428.7 30911.1 lineto
64485 31023.6 lineto
64541.2 31192.4 lineto
64597.5 31473.6 lineto
64597.5 31698.5 lineto
64541.2 31979.8 lineto
64485 32148.5 lineto
64428.7 32261 lineto
64316.2 32429.7 lineto
64260 32485.9 lineto
stroke
newpath
37078.9 30630.4 moveto
37078.9 29592.3 lineto
stroke
newpath
36559.8 30111.4 moveto
37598 30111.4 lineto
stroke
0 0 0 setrgbcolor
0 0 0 setrgbcolor
newpath
39344.4 29577.1 moveto
38669.4 29577.1 lineto
stroke
newpath
39006.9 29577.1 moveto
39006.9 30758.2 lineto
38894.4 30589.4 lineto
38781.9 30476.9 lineto
38669.4 30420.7 lineto
stroke
newpath
39850.5 29689.5 moveto
39906.8 29633.3 lineto
39850.5 29577.1 lineto
39794.3 29633.3 lineto
39850.5 29689.5 lineto
39850.5 29577.1 lineto
stroke
newpath
40637.9 30758.2 moveto
40750.4 30758.2 lineto
40862.9 30701.9 lineto
40919.2 30645.7 lineto
40975.4 30533.2 lineto
41031.6 30308.2 lineto
41031.6 30027 lineto
40975.4 29802 lineto
40919.2 29689.5 lineto
40862.9 29633.3 lineto
40750.4 29577.1 lineto
40637.9 29577.1 lineto
40525.5 29633.3 lineto
40469.2 29689.5 lineto
40413 29802 lineto
40356.7 30027 lineto
40356.7 30308.2 lineto
40413 30533.2 lineto
40469.2 30645.7 lineto
40525.5 30701.9 lineto
40637.9 30758.2 lineto
stroke
newpath
41762.8 30758.2 moveto
41875.3 30758.2 lineto
41987.8 30701.9 lineto
42044 30645.7 lineto
42100.3 30533.2 lineto
42156.5 30308.2 lineto
42156.5 30027 lineto
42100.3 29802 lineto
42044 29689.5 lineto
41987.8 29633.3 lineto
41875.3 29577.1 lineto
41762.8 29577.1 lineto
41650.3 29633.3 lineto
41594.1 29689.5 lineto
41537.8 29802 lineto
41481.6 30027 lineto
41481.6 30308.2 lineto
41537.8 30533.2 lineto
41594.1 30645.7 lineto
41650.3 30701.9 lineto
41762.8 30758.2 lineto
stroke
newpath
42662.7 29577.1 moveto
42662.7 30364.5 lineto
stroke
newpath
42662.7 30252 moveto
42718.9 30308.2 lineto
42831.4 30364.5 lineto
43000.1 30364.5 lineto
43112.6 30308.2 lineto
43168.9 30195.7 lineto
43168.9 29577.1 lineto
stroke
newpath
43168.9 30195.7 moveto
43225.1 30308.2 lineto
43337.6 30364.5 lineto
43506.3 30364.5 lineto
43618.8 30308.2 lineto
43675.1 30195.7 lineto
43675.1 29577.1 lineto
stroke
newpath
44237.5 29577.1 moveto
44237.5 30364.5 lineto
stroke
newpath
44237.5 30252 moveto
44293.7 30308.2 lineto
44406.2 30364.5 lineto
44575 30364.5 lineto
44687.4 30308.2 lineto
44743.7 30195.7 lineto
44743.7 29577.1 lineto
stroke
newpath
44743.7 30195.7 moveto
44799.9 30308.2 lineto
44912.4 30364.5 lineto
45081.1 30364.5 lineto
45193.6 30308.2 lineto
45249.9 30195.7 lineto
45249.9 29577.1 lineto
stroke
newpath
47555.8 30814.4 moveto
46543.5 29295.8 lineto
stroke
newpath
49074.4 30758.2 moveto
49186.9 30758.2 lineto
49299.4 30701.9 lineto
49355.6 30645.7 lineto
49411.8 30533.2 lineto
49468.1 30308.2 lineto
49468.1 30027 lineto
49411.8 29802 lineto
49355.6 29689.5 lineto
49299.4 29633.3 lineto
49186.9 29577.1 lineto
49074.4 29577.1 lineto
48961.9 29633.3 lineto
48905.7 29689.5 lineto
48849.4 29802 lineto
48793.2 30027 lineto
48793.2 30308.2 lineto
48849.4 30533.2 lineto
48905.7 30645.7 lineto
48961.9 30701.9 lineto
49074.4 30758.2 lineto
stroke
newpath
49974.3 29689.5 moveto
50030.5 29633.3 lineto
49974.3 29577.1 lineto
49918 29633.3 lineto
49974.3 29689.5 lineto
49974.3 29577.1 lineto
stroke
newpath
50761.7 30758.2 moveto
50874.2 30758.2 lineto
50986.7 30701.9 lineto
51042.9 30645.7 lineto
51099.1 30533.2 lineto
51155.4 30308.2 lineto
51155.4 30027 lineto
51099.1 29802 lineto
51042.9 29689.5 lineto
50986.7 29633.3 lineto
50874.2 29577.1 lineto
50761.7 29577.1 lineto
50649.2 29633.3 lineto
50593 29689.5 lineto
50536.7 29802 lineto
50480.5 30027 lineto
50480.5 30308.2 lineto
50536.7 30533.2 lineto
50593 30645.7 lineto
50649.2 30701.9 lineto
50761.7 30758.2 lineto
stroke
newpath
51549.1 30758.2 moveto
52280.2 30758.2 lineto
51886.5 30308.2 lineto
52055.3 30308.2 lineto
52167.8 30252 lineto
52224 30195.7 lineto
52280.2 30083.2 lineto
52280.2 29802 lineto
52224 29689.5 lineto
52167.8 29633.3 lineto
52055.3 29577.1 lineto
51717.8 29577.1 lineto
51605.3 29633.3 lineto
51549.1 29689.5 lineto
stroke
newpath
52842.7 29577.1 moveto
53067.6 29577.1 lineto
53180.1 29633.3 lineto
53236.4 29689.5 lineto
53348.9 29858.3 lineto
53405.1 30083.2 lineto
53405.1 30533.2 lineto
53348.9 30645.7 lineto
53292.6 30701.9 lineto
53180.1 30758.2 lineto
52955.2 30758.2 lineto
52842.7 30701.9 lineto
52786.4 30645.7 lineto
52730.2 30533.2 lineto
52730.2 30252 lineto
52786.4 30139.5 lineto
52842.7 30083.2 lineto
52955.2 30027 lineto
53180.1 30027 lineto
53292.6 30083.2 lineto
53348.9 30139.5 lineto
53405.1 30252 lineto
stroke
newpath
53855 30758.2 moveto
53855 30533.2 lineto
stroke
newpath
54305 30758.2 moveto
54305 30533.2 lineto
stroke
newpath
56048.5 29127.1 moveto
55992.3 29183.4 lineto
55879.8 29352.1 lineto
55823.5 29464.6 lineto
55767.3 29633.3 lineto
55711.1 29914.5 lineto
55711.1 30139.5 lineto
55767.3 30420.7 lineto
55823.5 30589.4 lineto
55879.8 30701.9 lineto
55992.3 30870.7 lineto
56048.5 30926.9 lineto
stroke
newpath
57004.7 30364.5 moveto
57004.7 29577.1 lineto
stroke
newpath
56723.4 30814.4 moveto
56442.2 29970.8 lineto
57173.4 29970.8 lineto
stroke
newpath
58523.2 29577.1 moveto
58523.2 30758.2 lineto
stroke
newpath
59029.4 29577.1 moveto
59029.4 30195.7 lineto
58973.2 30308.2 lineto
58860.7 30364.5 lineto
58691.9 30364.5 lineto
58579.5 30308.2 lineto
58523.2 30252 lineto
stroke
newpath
59760.6 29577.1 moveto
59648.1 29633.3 lineto
59591.8 29689.5 lineto
59535.6 29802 lineto
59535.6 30139.5 lineto
59591.8 30252 lineto
59648.1 30308.2 lineto
59760.6 30364.5 lineto
59929.3 30364.5 lineto
60041.8 30308.2 lineto
60098 30252 lineto
60154.3 30139.5 lineto
60154.3 29802 lineto
60098 29689.5 lineto
60041.8 29633.3 lineto
59929.3 29577.1 lineto
59760.6 29577.1 lineto
stroke
newpath
60829.2 29577.1 moveto
60716.7 29633.3 lineto
60660.4 29745.8 lineto
60660.4 30758.2 lineto
stroke
newpath
61729.1 29633.3 moveto
61616.6 29577.1 lineto
61391.6 29577.1 lineto
61279.1 29633.3 lineto
61222.9 29745.8 lineto
61222.9 30195.7 lineto
61279.1 30308.2 lineto
61391.6 30364.5 lineto
61616.6 30364.5 lineto
61729.1 30308.2 lineto
61785.3 30195.7 lineto
61785.3 30083.2 lineto
61222.9 29970.8 lineto
stroke
newpath
62235.2 29633.3 moveto
62347.7 29577.1 lineto
62572.7 29577.1 lineto
62685.2 29633.3 lineto
62741.4 29745.8 lineto
62741.4 29802 lineto
62685.2 29914.5 lineto
62572.7 29970.8 lineto
62404 29970.8 lineto
62291.5 30027 lineto
62235.2 30139.5 lineto
62235.2 30195.7 lineto
62291.5 30308.2 lineto
62404 30364.5 lineto
62572.7 30364.5 lineto
62685.2 30308.2 lineto
stroke
newpath
63135.1 29127.1 moveto
63191.4 29183.4 lineto
63303.9 29352.1 lineto
63360.1 29464.6 lineto
63416.4 29633.3 lineto
63472.6 29914.5 lineto
63472.6 30139.5 lineto
63416.4 30420.7 lineto
63360.1 30589.4 lineto
63303.9 30701.9 lineto
63191.4 30870.7 lineto
63135.1 30926.9 lineto
stroke
newpath
37385.6 28039.5 moveto
37385.6 29065.1 lineto
36360.1 29065.1 lineto
36360.1 28039.5 lineto
37385.6 28039.5 lineto
poly0
0 0 0 setrgbcolor
0 0 0 setrgbcolor
newpath
39344.4 28018 moveto
38669.4 28018 lineto
stroke
newpath
39006.9 28018 moveto
39006.9 29199.1 lineto
38894.4 29030.4 lineto
38781.9 28917.9 lineto
38669.4 28861.7 lineto
stroke
newpath
39850.5 28130.5 moveto
39906.8 28074.2 lineto
39850.5 28018 lineto
39794.3 28074.2 lineto
39850.5 28130.5 lineto
39850.5 28018 lineto
stroke
newpath
40919.2 28805.4 moveto
40919.2 28018 lineto
stroke
newpath
40637.9 29255.4 moveto
40356.7 28411.7 lineto
41087.9 28411.7 lineto
stroke
newpath
41762.8 29199.1 moveto
41875.3 29199.1 lineto
41987.8 29142.9 lineto
42044 29086.6 lineto
42100.3 28974.1 lineto
42156.5 28749.2 lineto
42156.5 28468 lineto
42100.3 28243 lineto
42044 28130.5 lineto
41987.8 28074.2 lineto
41875.3 28018 lineto
41762.8 28018 lineto
41650.3 28074.2 lineto
41594.1 28130.5 lineto
41537.8 28243 lineto
41481.6 28468 lineto
41481.6 28749.2 lineto
41537.8 28974.1 lineto
41594.1 29086.6 lineto
41650.3 29142.9 lineto
41762.8 29199.1 lineto
stroke
newpath
42662.7 28018 moveto
42662.7 28805.4 lineto
stroke
newpath
42662.7 28692.9 moveto
42718.9 28749.2 lineto
42831.4 28805.4 lineto
43000.1 28805.4 lineto
43112.6 28749.2 lineto
43168.9 28636.7 lineto
43168.9 28018 lineto
stroke
newpath
43168.9 28636.7 moveto
43225.1 28749.2 lineto
43337.6 28805.4 lineto
43506.3 28805.4 lineto
43618.8 28749.2 lineto
43675.1 28636.7 lineto
43675.1 28018 lineto
stroke
newpath
44237.5 28018 moveto
44237.5 28805.4 lineto
stroke
newpath
44237.5 28692.9 moveto
44293.7 28749.2 lineto
44406.2 28805.4 lineto
44575 28805.4 lineto
44687.4 28749.2 lineto
44743.7 28636.7 lineto
44743.7 28018 lineto
stroke
newpath
44743.7 28636.7 moveto
44799.9 28749.2 lineto
44912.4 28805.4 lineto
45081.1 28805.4 lineto
45193.6 28749.2 lineto
45249.9 28636.7 lineto
45249.9 28018 lineto
stroke
newpath
47555.8 29255.4 moveto
46543.5 27736.8 lineto
stroke
newpath
49074.4 29199.1 moveto
49186.9 29199.1 lineto
49299.4 29142.9 lineto
49355.6 29086.6 lineto
49411.8 28974.1 lineto
49468.1 28749.2 lineto
49468.1 28468 lineto
49411.8 28243 lineto
49355.6 28130.5 lineto
49299.4 28074.2 lineto
49186.9 28018 lineto
49074.4 28018 lineto
48961.9 28074.2 lineto
48905.7 28130.5 lineto
48849.4 28243 lineto
48793.2 28468 lineto
48793.2 28749.2 lineto
48849.4 28974.1 lineto
48905.7 29086.6 lineto
48961.9 29142.9 lineto
49074.4 29199.1 lineto
stroke
newpath
49974.3 28130.5 moveto
50030.5 28074.2 lineto
49974.3 28018 lineto
49918 28074.2 lineto
49974.3 28130.5 lineto
49974.3 28018 lineto
stroke
newpath
50761.7 29199.1 moveto
50874.2 29199.1 lineto
50986.7 29142.9 lineto
51042.9 29086.6 lineto
51099.1 28974.1 lineto
51155.4 28749.2 lineto
51155.4 28468 lineto
51099.1 28243 lineto
51042.9 28130.5 lineto
50986.7 28074.2 lineto
50874.2 28018 lineto
50761.7 28018 lineto
50649.2 28074.2 lineto
50593 28130.5 lineto
50536.7 28243 lineto
50480.5 28468 lineto
50480.5 28749.2 lineto
50536.7 28974.1 lineto
50593 29086.6 lineto
50649.2 29142.9 lineto
50761.7 29199.1 lineto
stroke
newpath
52224 29199.1 moveto
51661.6 29199.1 lineto
51605.3 28636.7 lineto
51661.6 28692.9 lineto
51774.1 28749.2 lineto
52055.3 28749.2 lineto
52167.8 28692.9 lineto
52224 28636.7 lineto
52280.2 28524.2 lineto
52280.2 28243 lineto
52224 28130.5 lineto
52167.8 28074.2 lineto
52055.3 28018 lineto
51774.1 28018 lineto
51661.6 28074.2 lineto
51605.3 28130.5 lineto
stroke
newpath
53348.9 29199.1 moveto
52786.4 29199.1 lineto
52730.2 28636.7 lineto
52786.4 28692.9 lineto
52898.9 28749.2 lineto
53180.1 28749.2 lineto
53292.6 28692.9 lineto
53348.9 28636.7 lineto
53405.1 28524.2 lineto
53405.1 28243 lineto
53348.9 28130.5 lineto
53292.6 28074.2 lineto
53180.1 28018 lineto
52898.9 28018 lineto
52786.4 28074.2 lineto
52730.2 28130.5 lineto
stroke
newpath
53855 29199.1 moveto
53855 28974.1 lineto
stroke
newpath
54305 29199.1 moveto
54305 28974.1 lineto
stroke
newpath
56048.5 27568.1 moveto
55992.3 27624.3 lineto
55879.8 27793 lineto
55823.5 27905.5 lineto
55767.3 28074.2 lineto
55711.1 28355.5 lineto
55711.1 28580.4 lineto
55767.3 28861.7 lineto
55823.5 29030.4 lineto
55879.8 29142.9 lineto
55992.3 29311.6 lineto
56048.5 29367.8 lineto
stroke
newpath
57060.9 29199.1 moveto
56498.5 29199.1 lineto
56442.2 28636.7 lineto
56498.5 28692.9 lineto
56611 28749.2 lineto
56892.2 28749.2 lineto
57004.7 28692.9 lineto
57060.9 28636.7 lineto
57117.1 28524.2 lineto
57117.1 28243 lineto
57060.9 28130.5 lineto
57004.7 28074.2 lineto
56892.2 28018 lineto
56611 28018 lineto
56498.5 28074.2 lineto
56442.2 28130.5 lineto
stroke
newpath
58523.2 28018 moveto
58523.2 29199.1 lineto
stroke
newpath
59029.4 28018 moveto
59029.4 28636.7 lineto
58973.2 28749.2 lineto
58860.7 28805.4 lineto
58691.9 28805.4 lineto
58579.5 28749.2 lineto
58523.2 28692.9 lineto
stroke
newpath
59760.6 28018 moveto
59648.1 28074.2 lineto
59591.8 28130.5 lineto
59535.6 28243 lineto
59535.6 28580.4 lineto
59591.8 28692.9 lineto
59648.1 28749.2 lineto
59760.6 28805.4 lineto
59929.3 28805.4 lineto
60041.8 28749.2 lineto
60098 28692.9 lineto
60154.3 28580.4 lineto
60154.3 28243 lineto
60098 28130.5 lineto
60041.8 28074.2 lineto
59929.3 28018 lineto
59760.6 28018 lineto
stroke
newpath
60829.2 28018 moveto
60716.7 28074.2 lineto
60660.4 28186.7 lineto
60660.4 29199.1 lineto
stroke
newpath
61729.1 28074.2 moveto
61616.6 28018 lineto
61391.6 28018 lineto
61279.1 28074.2 lineto
61222.9 28186.7 lineto
61222.9 28636.7 lineto
61279.1 28749.2 lineto
61391.6 28805.4 lineto
61616.6 28805.4 lineto
61729.1 28749.2 lineto
61785.3 28636.7 lineto
61785.3 28524.2 lineto
61222.9 28411.7 lineto
stroke
newpath
62235.2 28074.2 moveto
62347.7 28018 lineto
62572.7 28018 lineto
62685.2 28074.2 lineto
62741.4 28186.7 lineto
62741.4 28243 lineto
62685.2 28355.5 lineto
62572.7 28411.7 lineto
62404 28411.7 lineto
62291.5 28468 lineto
62235.2 28580.4 lineto
62235.2 28636.7 lineto
62291.5 28749.2 lineto
62404 28805.4 lineto
62572.7 28805.4 lineto
62685.2 28749.2 lineto
stroke
newpath
63135.1 27568.1 moveto
63191.4 27624.3 lineto
63303.9 27793 lineto
63360.1 27905.5 lineto
63416.4 28074.2 lineto
63472.6 28355.5 lineto
63472.6 28580.4 lineto
63416.4 28861.7 lineto
63360.1 29030.4 lineto
63303.9 29142.9 lineto
63191.4 29311.6 lineto
63135.1 29367.8 lineto
stroke
newpath
36196.5 25188.7 moveto
37598 26590.2 lineto
36196.5 27991.7 lineto
34795 26590.2 lineto
36196.5 25188.7 lineto
poly0
0 0 0 setrgbcolor
0 0 0 setrgbcolor
newpath
38669.4 27124.5 moveto
38725.7 27180.7 lineto
38838.2 27237 lineto
39119.4 27237 lineto
39231.9 27180.7 lineto
39288.1 27124.5 lineto
39344.4 27012 lineto
39344.4 26899.5 lineto
39288.1 26730.8 lineto
38613.2 26055.9 lineto
39344.4 26055.9 lineto
stroke
newpath
39850.5 26168.4 moveto
39906.8 26112.1 lineto
39850.5 26055.9 lineto
39794.3 26112.1 lineto
39850.5 26168.4 lineto
39850.5 26055.9 lineto
stroke
newpath
40300.5 27237 moveto
41087.9 27237 lineto
40581.7 26055.9 lineto
stroke
newpath
41762.8 27237 moveto
41875.3 27237 lineto
41987.8 27180.7 lineto
42044 27124.5 lineto
42100.3 27012 lineto
42156.5 26787 lineto
42156.5 26505.8 lineto
42100.3 26280.9 lineto
42044 26168.4 lineto
41987.8 26112.1 lineto
41875.3 26055.9 lineto
41762.8 26055.9 lineto
41650.3 26112.1 lineto
41594.1 26168.4 lineto
41537.8 26280.9 lineto
41481.6 26505.8 lineto
41481.6 26787 lineto
41537.8 27012 lineto
41594.1 27124.5 lineto
41650.3 27180.7 lineto
41762.8 27237 lineto
stroke
newpath
42662.7 26055.9 moveto
42662.7 26843.3 lineto
stroke
newpath
42662.7 26730.8 moveto
42718.9 26787 lineto
42831.4 26843.3 lineto
43000.1 26843.3 lineto
43112.6 26787 lineto
43168.9 26674.6 lineto
43168.9 26055.9 lineto
stroke
newpath
43168.9 26674.6 moveto
43225.1 26787 lineto
43337.6 26843.3 lineto
43506.3 26843.3 lineto
43618.8 26787 lineto
43675.1 26674.6 lineto
43675.1 26055.9 lineto
stroke
newpath
44237.5 26055.9 moveto
44237.5 26843.3 lineto
stroke
newpath
44237.5 26730.8 moveto
44293.7 26787 lineto
44406.2 26843.3 lineto
44575 26843.3 lineto
44687.4 26787 lineto
44743.7 26674.6 lineto
44743.7 26055.9 lineto
stroke
newpath
44743.7 26674.6 moveto
44799.9 26787 lineto
44912.4 26843.3 lineto
45081.1 26843.3 lineto
45193.6 26787 lineto
45249.9 26674.6 lineto
45249.9 26055.9 lineto
stroke
newpath
47555.8 27293.2 moveto
46543.5 25774.7 lineto
stroke
newpath
49074.4 27237 moveto
49186.9 27237 lineto
49299.4 27180.7 lineto
49355.6 27124.5 lineto
49411.8 27012 lineto
49468.1 26787 lineto
49468.1 26505.8 lineto
49411.8 26280.9 lineto
49355.6 26168.4 lineto
49299.4 26112.1 lineto
49186.9 26055.9 lineto
49074.4 26055.9 lineto
48961.9 26112.1 lineto
48905.7 26168.4 lineto
48849.4 26280.9 lineto
48793.2 26505.8 lineto
48793.2 26787 lineto
48849.4 27012 lineto
48905.7 27124.5 lineto
48961.9 27180.7 lineto
49074.4 27237 lineto
stroke
newpath
49974.3 26168.4 moveto
50030.5 26112.1 lineto
49974.3 26055.9 lineto
49918 26112.1 lineto
49974.3 26168.4 lineto
49974.3 26055.9 lineto
stroke
newpath
51155.4 26055.9 moveto
50480.5 26055.9 lineto
stroke
newpath
50817.9 26055.9 moveto
50817.9 27237 lineto
50705.4 27068.3 lineto
50593 26955.8 lineto
50480.5 26899.5 lineto
stroke
newpath
51886.5 27237 moveto
51999 27237 lineto
52111.5 27180.7 lineto
52167.8 27124.5 lineto
52224 27012 lineto
52280.2 26787 lineto
52280.2 26505.8 lineto
52224 26280.9 lineto
52167.8 26168.4 lineto
52111.5 26112.1 lineto
51999 26055.9 lineto
51886.5 26055.9 lineto
51774.1 26112.1 lineto
51717.8 26168.4 lineto
51661.6 26280.9 lineto
51605.3 26505.8 lineto
51605.3 26787 lineto
51661.6 27012 lineto
51717.8 27124.5 lineto
51774.1 27180.7 lineto
51886.5 27237 lineto
stroke
newpath
53292.6 27237 moveto
53067.6 27237 lineto
52955.2 27180.7 lineto
52898.9 27124.5 lineto
52786.4 26955.8 lineto
52730.2 26730.8 lineto
52730.2 26280.9 lineto
52786.4 26168.4 lineto
52842.7 26112.1 lineto
52955.2 26055.9 lineto
53180.1 26055.9 lineto
53292.6 26112.1 lineto
53348.9 26168.4 lineto
53405.1 26280.9 lineto
53405.1 26562.1 lineto
53348.9 26674.6 lineto
53292.6 26730.8 lineto
53180.1 26787 lineto
52955.2 26787 lineto
52842.7 26730.8 lineto
52786.4 26674.6 lineto
52730.2 26562.1 lineto
stroke
newpath
53855 27237 moveto
53855 27012 lineto
stroke
newpath
54305 27237 moveto
54305 27012 lineto
stroke
newpath
56048.5 25605.9 moveto
55992.3 25662.2 lineto
55879.8 25830.9 lineto
55823.5 25943.4 lineto
55767.3 26112.1 lineto
55711.1 26393.3 lineto
55711.1 26618.3 lineto
55767.3 26899.5 lineto
55823.5 27068.3 lineto
55879.8 27180.7 lineto
55992.3 27349.5 lineto
56048.5 27405.7 lineto
stroke
newpath
57004.7 26843.3 moveto
57004.7 26055.9 lineto
stroke
newpath
56723.4 27293.2 moveto
56442.2 26449.6 lineto
57173.4 26449.6 lineto
stroke
newpath
58523.2 26055.9 moveto
58523.2 27237 lineto
stroke
newpath
59029.4 26055.9 moveto
59029.4 26674.6 lineto
58973.2 26787 lineto
58860.7 26843.3 lineto
58691.9 26843.3 lineto
58579.5 26787 lineto
58523.2 26730.8 lineto
stroke
newpath
59760.6 26055.9 moveto
59648.1 26112.1 lineto
59591.8 26168.4 lineto
59535.6 26280.9 lineto
59535.6 26618.3 lineto
59591.8 26730.8 lineto
59648.1 26787 lineto
59760.6 26843.3 lineto
59929.3 26843.3 lineto
60041.8 26787 lineto
60098 26730.8 lineto
60154.3 26618.3 lineto
60154.3 26280.9 lineto
60098 26168.4 lineto
60041.8 26112.1 lineto
59929.3 26055.9 lineto
59760.6 26055.9 lineto
stroke
newpath
60829.2 26055.9 moveto
60716.7 26112.1 lineto
60660.4 26224.6 lineto
60660.4 27237 lineto
stroke
newpath
61729.1 26112.1 moveto
61616.6 26055.9 lineto
61391.6 26055.9 lineto
61279.1 26112.1 lineto
61222.9 26224.6 lineto
61222.9 26674.6 lineto
61279.1 26787 lineto
61391.6 26843.3 lineto
61616.6 26843.3 lineto
61729.1 26787 lineto
61785.3 26674.6 lineto
61785.3 26562.1 lineto
61222.9 26449.6 lineto
stroke
newpath
62235.2 26112.1 moveto
62347.7 26055.9 lineto
62572.7 26055.9 lineto
62685.2 26112.1 lineto
62741.4 26224.6 lineto
62741.4 26280.9 lineto
62685.2 26393.3 lineto
62572.7 26449.6 lineto
62404 26449.6 lineto
62291.5 26505.8 lineto
62235.2 26618.3 lineto
62235.2 26674.6 lineto
62291.5 26787 lineto
62404 26843.3 lineto
62572.7 26843.3 lineto
62685.2 26787 lineto
stroke
newpath
63135.1 25605.9 moveto
63191.4 25662.2 lineto
63303.9 25830.9 lineto
63360.1 25943.4 lineto
63416.4 26112.1 lineto
63472.6 26393.3 lineto
63472.6 26618.3 lineto
63416.4 26899.5 lineto
63360.1 27068.3 lineto
63303.9 27180.7 lineto
63191.4 27349.5 lineto
63135.1 27405.7 lineto
stroke
showpage
grestore
%%EOF
